<svg 
 xmlns="http://www.w3.org/2000/svg"
 xmlns:xlink="http://www.w3.org/1999/xlink"
 width="126px" height="126px">
<path fill-rule="evenodd"  fill="rgb(169, 206, 244)"
 d="M69.726,125.208 L69.726,114.269 L56.274,114.269 L56.274,125.208 L0.792,125.208 L0.792,105.879 C0.792,93.610 8.799,83.177 19.862,79.528 C18.052,78.544 16.426,77.263 15.051,75.749 L14.817,75.749 L14.817,75.479 C12.017,72.274 10.315,68.088 10.315,63.508 C10.315,57.448 13.292,52.072 17.858,48.758 C21.164,42.315 26.920,37.328 33.886,35.029 C28.204,31.942 24.339,25.919 24.339,19.010 C24.339,8.964 32.511,0.792 42.557,0.792 C52.603,0.792 60.776,8.964 60.776,19.010 C60.776,21.096 60.419,23.099 59.771,24.966 C60.823,24.797 61.901,24.706 63.000,24.706 C64.099,24.706 65.177,24.797 66.229,24.966 C65.581,23.099 65.224,21.096 65.224,19.010 C65.224,8.964 73.397,0.792 83.442,0.792 C93.488,0.792 101.661,8.964 101.661,19.010 C101.661,25.919 97.796,31.942 92.114,35.029 C99.080,37.327 104.836,42.315 108.142,48.758 C112.708,52.072 115.685,57.448 115.685,63.508 C115.685,70.417 111.820,76.440 106.138,79.528 C117.201,83.177 125.208,93.610 125.208,105.879 L125.208,125.208 L69.726,125.208 ZM73.315,121.618 L81.226,121.618 L81.226,114.269 L73.315,114.269 L73.315,121.618 ZM77.477,110.680 L77.477,93.653 L81.066,93.653 L81.066,110.680 L90.430,110.680 L90.430,92.725 C90.430,81.598 83.771,71.998 74.229,67.700 L64.794,78.516 L64.794,91.590 L61.205,91.590 L61.205,78.516 L51.770,67.700 C42.229,71.998 35.569,81.598 35.569,92.725 L35.569,110.680 L44.934,110.680 L44.934,93.653 L48.523,93.653 L48.523,110.680 L77.477,110.680 ZM83.287,45.261 L83.442,45.439 L89.850,38.093 C87.808,37.531 85.660,37.228 83.442,37.228 C82.879,37.228 82.321,37.250 81.767,37.288 C82.749,39.667 83.294,42.271 83.294,45.000 C83.294,45.088 83.288,45.174 83.287,45.261 ZM46.508,66.464 C48.767,65.041 51.222,63.899 53.822,63.092 C49.605,60.943 46.232,57.367 44.352,53.000 L44.352,54.489 C45.876,57.150 46.752,60.228 46.751,63.508 C46.751,64.515 46.666,65.502 46.508,66.464 ZM63.000,61.706 C71.029,61.706 77.751,56.011 79.345,48.450 C67.332,48.019 60.196,43.926 57.295,41.821 C54.957,43.934 51.494,46.261 46.556,47.926 C47.944,55.746 54.787,61.706 63.000,61.706 ZM55.376,66.374 L63.000,75.113 L70.624,66.374 C68.202,65.672 65.645,65.294 63.000,65.294 C60.355,65.294 57.797,65.672 55.376,66.374 ZM72.178,63.092 C74.778,63.899 77.232,65.040 79.492,66.464 C79.334,65.502 79.248,64.515 79.248,63.508 C79.248,60.228 80.124,57.150 81.648,54.489 L81.648,53.000 C79.767,57.367 76.395,60.943 72.178,63.092 ZM44.233,37.288 C43.679,37.250 43.121,37.229 42.558,37.229 C40.340,37.229 38.192,37.531 36.150,38.093 L42.558,45.439 L42.713,45.261 C42.712,45.174 42.706,45.088 42.706,45.000 C42.706,42.271 43.251,39.667 44.233,37.288 ZM44.774,121.618 L52.685,121.618 L52.685,114.269 L44.774,114.269 L44.774,121.618 ZM18.511,83.907 C10.181,87.721 4.381,96.135 4.381,105.879 L4.381,121.618 L12.292,121.618 L12.292,106.703 L15.881,106.703 L15.881,121.618 L41.185,121.618 L41.185,114.269 L31.980,114.269 L31.980,92.725 C31.980,92.285 31.992,91.847 32.010,91.411 L30.327,93.340 L30.327,104.872 L26.738,104.872 L26.738,93.340 L18.511,83.907 ZM33.783,82.303 C32.092,81.927 30.336,81.727 28.533,81.727 C26.316,81.727 24.167,82.029 22.126,82.592 L28.533,89.937 L33.005,84.811 C33.230,83.960 33.490,83.124 33.783,82.303 ZM28.533,78.138 C31.930,78.138 35.057,76.971 37.543,75.022 C38.677,73.397 39.961,71.886 41.376,70.508 C42.012,69.346 42.492,68.086 42.794,66.759 C32.407,66.334 26.140,62.837 23.480,60.941 C21.416,62.781 18.404,64.785 14.163,66.240 C15.446,73.006 21.400,78.138 28.533,78.138 ZM13.942,62.505 C21.680,59.545 24.128,54.671 24.153,54.618 L27.382,56.184 C27.335,56.282 26.917,57.114 25.986,58.297 C28.467,59.946 34.077,62.846 43.154,63.181 C42.979,55.266 36.490,48.878 28.533,48.878 C20.804,48.878 14.459,54.905 13.942,62.505 ZM32.535,39.409 C29.261,40.908 26.378,43.119 24.084,45.842 C25.509,45.483 26.998,45.290 28.533,45.290 C33.236,45.290 37.528,47.081 40.763,50.017 L40.763,48.841 L32.535,39.409 ZM42.558,33.640 C43.960,33.640 45.315,33.438 46.600,33.068 C48.792,30.063 51.786,27.681 55.267,26.241 C55.968,25.014 56.496,23.677 56.818,22.261 C46.431,21.837 40.164,18.339 37.504,16.443 C35.440,18.283 32.429,20.287 28.187,21.742 C29.471,28.507 35.424,33.640 42.558,33.640 ZM42.557,4.381 C34.828,4.381 28.483,10.407 27.965,18.007 C35.604,15.090 38.072,10.328 38.182,10.109 L41.406,11.686 C41.359,11.784 40.941,12.615 40.010,13.798 C42.491,15.448 48.101,18.348 57.179,18.683 C57.004,10.767 50.515,4.381 42.557,4.381 ZM63.000,28.296 C54.055,28.296 46.731,35.363 46.315,44.206 C55.375,40.852 58.241,35.148 58.271,35.086 L61.500,36.652 C61.444,36.766 60.943,37.770 59.803,39.183 C62.539,41.047 69.030,44.525 79.702,44.869 C79.630,35.719 72.167,28.296 63.000,28.296 ZM83.442,4.381 C75.713,4.381 69.368,10.407 68.851,18.007 C76.489,15.090 78.958,10.328 79.068,10.109 L82.292,11.686 C82.244,11.784 81.827,12.615 80.895,13.798 C83.376,15.448 88.986,18.348 98.064,18.683 C97.889,10.767 91.400,4.381 83.442,4.381 ZM97.703,22.261 C87.316,21.837 81.049,18.339 78.389,16.443 C76.325,18.283 73.313,20.287 69.072,21.742 C69.377,23.350 69.946,24.865 70.732,26.241 C74.214,27.681 77.208,30.063 79.400,33.068 C80.685,33.437 82.040,33.640 83.442,33.640 C90.392,33.640 96.221,28.768 97.703,22.261 ZM93.465,39.409 L85.237,48.841 L85.237,50.017 C88.472,47.081 92.764,45.290 97.467,45.290 C99.001,45.290 100.491,45.483 101.916,45.842 C99.622,43.119 96.739,40.908 93.465,39.409 ZM97.467,48.878 C89.738,48.878 83.393,54.905 82.876,62.506 C90.613,59.545 93.061,54.672 93.087,54.618 L96.316,56.184 C96.269,56.283 95.851,57.114 94.920,58.297 C97.401,59.947 103.010,62.846 112.088,63.182 C111.913,55.266 105.424,48.878 97.467,48.878 ZM111.728,66.759 C101.340,66.334 95.074,62.837 92.414,60.941 C90.349,62.781 87.338,64.785 83.097,66.240 C83.385,67.758 83.905,69.194 84.624,70.508 C86.039,71.886 87.323,73.397 88.456,75.021 C90.942,76.971 94.070,78.138 97.467,78.138 C104.416,78.138 110.245,73.266 111.728,66.759 ZM92.217,82.303 C92.511,83.124 92.771,83.960 92.995,84.811 L97.467,89.937 L103.875,82.592 C101.833,82.029 99.684,81.727 97.467,81.727 C95.665,81.727 93.908,81.927 92.217,82.303 ZM121.619,105.880 C121.619,96.135 115.818,87.722 107.489,83.907 L99.261,93.340 L99.261,104.872 L95.673,104.872 L95.673,93.340 L93.990,91.411 C94.008,91.847 94.020,92.285 94.020,92.725 L94.020,114.269 L84.815,114.269 L84.815,121.618 L110.119,121.618 L110.119,106.703 L113.708,106.703 L113.708,121.618 L121.619,121.618 L121.619,105.880 ZM95.673,108.359 L99.262,108.359 L99.262,112.474 L95.673,112.474 L95.673,108.359 ZM30.326,112.474 L26.738,112.474 L26.738,108.359 L30.326,108.359 L30.326,112.474 ZM64.794,100.153 L61.205,100.153 L61.205,95.518 L64.794,95.518 L64.794,100.153 ZM121.619,10.903 L125.208,10.903 L125.208,14.892 L121.619,14.892 L121.619,10.903 ZM115.953,39.286 L119.542,39.286 L119.542,43.275 L115.953,43.275 L115.953,39.286 ZM107.594,25.636 L111.182,25.636 L111.182,29.626 L107.594,29.626 L107.594,25.636 ZM107.594,3.237 L111.182,3.237 L111.182,7.226 L107.594,7.226 L107.594,3.237 ZM14.817,25.636 L18.406,25.636 L18.406,29.626 L14.817,29.626 L14.817,25.636 ZM14.817,3.237 L18.406,3.237 L18.406,7.226 L14.817,7.226 L14.817,3.237 ZM6.458,39.286 L10.047,39.286 L10.047,43.275 L6.458,43.275 L6.458,39.286 ZM0.792,10.903 L4.381,10.903 L4.381,14.892 L0.792,14.892 L0.792,10.903 Z"/>
</svg>